<svg xmlns="http://www.w3.org/2000/svg" width="61" height="28" viewBox="0 0 61 28">
    <g fill="none" transform="translate(1 1)">
        <rect width="59" height="26" fill="#FFF" stroke="#E4E4E4" stroke-width=".5" rx="2.704"/>
        <path fill="#5F6368" d="M28.697 14.687v4.6h-1.461V7.924h3.871c.934-.02 1.837.334 2.507.984.68.61 1.062 1.485 1.047 2.397.02.92-.363 1.8-1.047 2.413-.677.646-1.513.969-2.507.967l-2.41.002zm0-5.364v3.968h2.447c.543.016 1.066-.197 1.444-.588.767-.745.785-1.972.038-2.739l-.038-.038c-.373-.4-.9-.618-1.444-.603h-2.447zm9.329 1.936c1.08 0 1.93.288 2.555.864.624.577.935 1.368.935 2.372v4.792H40.12v-1.08h-.062c-.605.89-1.41 1.333-2.413 1.333-.856 0-1.573-.253-2.15-.762-.56-.472-.877-1.17-.864-1.904 0-.805.305-1.444.913-1.92.607-.474 1.419-.713 2.435-.713.866 0 1.582.16 2.141.475v-.334c.004-.5-.218-.974-.602-1.292-.386-.347-.89-.538-1.41-.531-.814 0-1.46.344-1.935 1.031l-1.285-.81c.705-1.014 1.752-1.521 3.138-1.521zm-1.89 5.648c-.001.378.18.732.484.952.323.254.724.39 1.134.381.616-.002 1.207-.247 1.643-.682.483-.455.725-.989.725-1.603-.455-.363-1.09-.545-1.904-.545-.593 0-1.088.143-1.484.43-.399.29-.598.643-.598 1.067zm13.395-5.395l-4.873 11.202H43.15l1.808-3.92-3.206-7.282h1.586l2.317 5.586h.031l2.254-5.586h1.59z"/>
        <path fill="#4285F4" d="M22.797 13.693c0-.445-.037-.89-.113-1.328h-6.157v2.514h3.526c-.146.811-.616 1.528-1.303 1.983v1.633h2.104c1.232-1.134 1.943-2.815 1.943-4.802z"/>
        <path fill="#34A853" d="M16.527 20.073c1.762 0 3.246-.578 4.327-1.576l-2.104-1.633c-.587.397-1.34.624-2.223.624-1.702 0-3.147-1.147-3.664-2.694h-2.168v1.683c1.108 2.205 3.365 3.596 5.832 3.596z"/>
        <path fill="#FBBC04" d="M12.863 14.794c-.273-.81-.273-1.689 0-2.499v-1.682h-2.168c-.927 1.845-.927 4.019 0 5.864l2.168-1.683z"/>
        <path fill="#EA4335" d="M16.527 9.601c.931-.015 1.83.337 2.504.979l1.865-1.863c-1.183-1.11-2.747-1.719-4.369-1.7-2.467 0-4.724 1.392-5.832 3.596l2.168 1.682c.517-1.546 1.962-2.694 3.664-2.694z"/>
    </g>
</svg>
