<?xml version="1.0" encoding="utf-8"?>
<!-- Generator: Adobe Illustrator 16.0.0, SVG Export Plug-In . SVG Version: 6.00 Build 0)  -->
<!DOCTYPE svg PUBLIC "-//W3C//DTD SVG 1.1//EN" "http://www.w3.org/Graphics/SVG/1.1/DTD/svg11.dtd">
<svg version="1.1" id="Layer_1" xmlns="http://www.w3.org/2000/svg" xmlns:xlink="http://www.w3.org/1999/xlink" x="0px" y="0px"
	 width="44px" height="28px" viewBox="0 0 44 28" enable-background="new 0 0 44 28" xml:space="preserve">
<g transform="translate(1 1)">
	<path fill="#DEAF69" d="M2.704,0h36.592C40.789,0,42,1.21,42,2.704v20.592C42,24.789,40.789,26,39.296,26H2.704
		C1.21,26,0,24.789,0,23.296V2.704C0,1.21,1.21,0,2.704,0z"/>
	<path fill="#FFFFFF" d="M15.246,18.134l1.735-10.18h2.775l-1.736,10.18H15.246z M28.044,8.174c-0.55-0.206-1.411-0.428-2.487-0.428
		c-2.74,0-4.673,1.38-4.688,3.36c-0.016,1.462,1.379,2.278,2.431,2.765c1.08,0.5,1.443,0.816,1.438,1.263
		c-0.006,0.683-0.861,0.994-1.659,0.994c-1.11,0-1.7-0.153-2.612-0.534l-0.357-0.162l-0.39,2.279
		c0.648,0.284,1.847,0.53,3.091,0.543c2.918,0,4.811-1.365,4.832-3.479c0.01-1.157-0.729-2.04-2.33-2.766
		c-0.97-0.47-1.563-0.785-1.557-1.262c0-0.423,0.502-0.875,1.589-0.875c0.907-0.014,1.564,0.183,2.076,0.39l0.25,0.117L28.044,8.174
		 M35.184,7.954H33.04c-0.664,0-1.161,0.182-1.453,0.844l-4.12,9.33h2.913c0,0,0.476-1.255,0.584-1.53l3.554,0.004
		c0.084,0.356,0.338,1.525,0.338,1.525h2.574L35.184,7.954z M31.783,14.527c0.229-0.586,1.105-2.845,1.105-2.845
		c-0.017,0.027,0.228-0.59,0.367-0.972l0.188,0.878l0.643,2.939H31.783z M12.89,7.954l-2.717,6.942l-0.29-1.411
		c-0.505-1.627-2.08-3.389-3.842-4.27l2.484,8.902l2.936-0.004l4.368-10.16H12.89"/>
	<path fill="#FFFFFF" d="M7.64,7.954H3.166L3.13,8.166c3.481,0.842,5.784,2.879,6.74,5.325L8.898,8.813
		C8.73,8.169,8.243,7.976,7.64,7.954"/>
</g>
</svg>
