<?xml version="1.0" encoding="utf-8"?>
<!-- Generator: Adobe Illustrator 16.0.0, SVG Export Plug-In . SVG Version: 6.00 Build 0)  -->
<!DOCTYPE svg PUBLIC "-//W3C//DTD SVG 1.1//EN" "http://www.w3.org/Graphics/SVG/1.1/DTD/svg11.dtd">
<svg version="1.1" id="Layer_1" xmlns="http://www.w3.org/2000/svg" xmlns:xlink="http://www.w3.org/1999/xlink" x="0px" y="0px"
	 width="20px" height="20px" viewBox="0 0 20 20" enable-background="new 0 0 20 20" xml:space="preserve">
<path fill="#FFFFFF" d="M10.009,10.579c0.228,0,0.434-0.105,0.675-0.33l4.699-4.475C15.184,5.588,14.807,5.5,14.275,5.5H5.571
	c-0.452,0-0.777,0.082-0.96,0.252l4.73,4.498C9.574,10.474,9.786,10.579,10.009,10.579z M4.143,13.648l3.837-3.65L4.137,6.356
	C4.046,6.509,4,6.766,4,7.134v5.732c0,0.366,0.046,0.63,0.143,0.784V13.648z M15.869,13.639C15.954,13.484,16,13.229,16,12.866
	V7.134c0-0.356-0.046-0.614-0.131-0.767l-3.833,3.63L15.869,13.639z M14.43,14.5c0.463,0,0.782-0.088,0.965-0.252l-3.912-3.73
	l-0.354,0.34c-0.371,0.342-0.725,0.507-1.12,0.507c-0.394,0-0.748-0.165-1.119-0.507l-0.354-0.34l-3.901,3.719
	C4.84,14.412,5.205,14.5,5.724,14.5H14.43z"/>
</svg>
