<?xml version="1.0" encoding="utf-8"?>
<!-- Generator: Adobe Illustrator 16.0.0, SVG Export Plug-In . SVG Version: 6.00 Build 0)  -->
<!DOCTYPE svg PUBLIC "-//W3C//DTD SVG 1.1//EN" "http://www.w3.org/Graphics/SVG/1.1/DTD/svg11.dtd">
<svg version="1.1" id="Layer_1" xmlns="http://www.w3.org/2000/svg" xmlns:xlink="http://www.w3.org/1999/xlink" x="0px" y="0px"
	 width="22px" height="16px" viewBox="0 0 22 16" enable-background="new 0 0 22 16" xml:space="preserve">
<g>
	<path fill="#DEAF69" d="M20.188,0.035H1.77C0.793,0.035,0,0.828,0,1.803v11.192c0,0.976,0.793,1.769,1.769,1.769h0.03
		c0,0.336,0.275,0.579,0.61,0.579s0.58-0.274,0.61-0.579h15.948c0,0.336,0.275,0.579,0.61,0.579c0.336,0,0.58-0.274,0.61-0.579
		h0.029c0.977,0,1.77-0.793,1.77-1.769V1.803C21.956,0.828,21.163,0.035,20.188,0.035z M20.736,12.995
		c0,0.305-0.244,0.549-0.549,0.549H1.77c-0.305,0-0.55-0.244-0.55-0.55V1.805c0-0.306,0.245-0.55,0.55-0.55h18.417
		c0.306,0,0.551,0.244,0.551,0.55v11.19H20.736z"/>
	<path fill="#DEAF69" d="M14.15,2.352H2.926c-0.335,0-0.61,0.275-0.61,0.61v8.874c0,0.336,0.275,0.609,0.61,0.609H14.18
		c0.336,0,0.61-0.273,0.61-0.609V2.962C14.76,2.627,14.484,2.352,14.15,2.352z M13.57,11.227H3.537V3.572H13.57V11.227z
		 M17.748,2.352c-0.977,0-1.77,0.793-1.77,1.769s0.793,1.769,1.77,1.769c0.975,0,1.768-0.793,1.768-1.769S18.725,2.352,17.748,2.352
		z M17.748,4.639c-0.305,0-0.55-0.244-0.55-0.548c0-0.305,0.245-0.55,0.55-0.55s0.549,0.245,0.549,0.55
		C18.297,4.395,18.053,4.639,17.748,4.639L17.748,4.639z"/>
</g>
</svg>
