<?xml version="1.0" encoding="utf-8"?>
<!-- Generator: Adobe Illustrator 16.0.0, SVG Export Plug-In . SVG Version: 6.00 Build 0)  -->
<!DOCTYPE svg PUBLIC "-//W3C//DTD SVG 1.1//EN" "http://www.w3.org/Graphics/SVG/1.1/DTD/svg11.dtd">
<svg version="1.1" id="Layer_1" xmlns="http://www.w3.org/2000/svg" xmlns:xlink="http://www.w3.org/1999/xlink" x="0px" y="0px"
	 width="22px" height="22px" viewBox="0 0 22 22" enable-background="new 0 0 22 22" xml:space="preserve">
<g id="Layer_1_1_">
	<g>
		<path fill="none" stroke="#DEAF69" stroke-width="1.375" d="M4.355,0.688h13.292c2.025,0,3.666,1.642,3.666,3.667v13.292
			c0,2.025-1.641,3.666-3.666,3.666H4.355c-2.025,0-3.667-1.641-3.667-3.666V4.355C0.688,2.33,2.33,0.688,4.355,0.688z"/>
	</g>
</g>
<g id="Layer_2">
	<g>
		<g>
			<path fill="#DEAF69" d="M15.443,13C16.854,13,18,14.146,18,15.557c0,1.409-1.146,2.555-2.557,2.555
				c-1.409,0-2.555-1.146-2.555-2.555C12.889,14.146,14.035,13,15.443,13 M15.443,12c-1.963,0-3.555,1.592-3.555,3.557
				c0,1.963,1.592,3.555,3.555,3.555c1.965,0,3.557-1.592,3.557-3.555C19,13.592,17.408,12,15.443,12L15.443,12z"/>
		</g>
		<g>
			<path fill="#DEAF69" d="M15.443,4C16.854,4,18,5.146,18,6.556c0,1.41-1.146,2.556-2.557,2.556c-1.409,0-2.555-1.146-2.555-2.556
				C12.889,5.146,14.035,4,15.443,4 M15.443,3c-1.963,0-3.555,1.592-3.555,3.556c0,1.964,1.592,3.556,3.555,3.556
				C17.408,10.112,19,8.52,19,6.556C19,4.592,17.408,3,15.443,3L15.443,3z"/>
		</g>
	</g>
	<g>
		<g>
			<path fill="#DEAF69" d="M6.556,13c1.409,0,2.556,1.146,2.556,2.557c0,1.409-1.146,2.555-2.556,2.555
				C5.146,18.111,4,16.965,4,15.557C4,14.146,5.146,13,6.556,13 M6.556,12C4.592,12,3,13.592,3,15.557
				c0,1.963,1.592,3.555,3.556,3.555c1.964,0,3.556-1.592,3.556-3.555C10.112,13.592,8.52,12,6.556,12L6.556,12z"/>
		</g>
		<g>
			<path fill="#DEAF69" d="M6.556,4c1.409,0,2.556,1.146,2.556,2.556c0,1.41-1.147,2.555-2.556,2.555C5.147,9.111,4,7.965,4,6.556
				C4,5.147,5.146,4,6.556,4 M6.556,3C4.592,3,3,4.592,3,6.556c0,1.964,1.592,3.556,3.556,3.556c1.964,0,3.556-1.592,3.556-3.556
				C10.112,4.592,8.52,3,6.556,3L6.556,3z"/>
		</g>
	</g>
</g>
</svg>
