<?xml version="1.0" encoding="utf-8"?>
<!-- Generator: Adobe Illustrator 16.0.0, SVG Export Plug-In . SVG Version: 6.00 Build 0)  -->
<!DOCTYPE svg PUBLIC "-//W3C//DTD SVG 1.1//EN" "http://www.w3.org/Graphics/SVG/1.1/DTD/svg11.dtd">
<svg version="1.1" id="Layer_1" xmlns="http://www.w3.org/2000/svg" xmlns:xlink="http://www.w3.org/1999/xlink" x="0px" y="0px"
	 width="27px" height="18px" viewBox="0 0 27 18" enable-background="new 0 0 27 18" xml:space="preserve">
<g>
	<g>
		<path fill="#DEAF69" d="M0.88,0L0.88,0c0.486,0,0.88,0.394,0.88,0.88v15.845c0,0.485-0.394,0.879-0.88,0.879l0,0
			C0.394,17.604,0,17.21,0,16.725V0.88C0,0.394,0.394,0,0.88,0z"/>
		<path fill="#DEAF69" d="M25.12,11.736v1c0,0.486-0.394,0.88-0.88,0.88H1.76c-0.486,0-0.88-0.394-0.88-0.88v-1
			c0-0.486,0.394-0.881,0.88-0.881h22.48C24.727,10.855,25.12,11.25,25.12,11.736z"/>
		<path fill="#DEAF69" d="M25.12,7.628L25.12,7.628c0.485,0,0.88,0.394,0.88,0.88v8.217c0,0.485-0.395,0.879-0.88,0.879l0,0
			c-0.486,0-0.88-0.394-0.88-0.879V8.508C24.24,8.022,24.634,7.628,25.12,7.628z"/>
	</g>
	<path fill="none" stroke="#DEAF69" stroke-width="1.4" d="M5,5h4c1.104,0,2,0.896,2,2l0,0c0,1.104-0.896,2-2,2H5
		C3.896,9,3,8.104,3,7l0,0C3,5.896,3.896,5,5,5z"/>
</g>
</svg>
