<?xml version="1.0" encoding="utf-8"?>
<!-- Generator: Adobe Illustrator 16.0.0, SVG Export Plug-In . SVG Version: 6.00 Build 0)  -->
<!DOCTYPE svg PUBLIC "-//W3C//DTD SVG 1.1//EN" "http://www.w3.org/Graphics/SVG/1.1/DTD/svg11.dtd">
<svg version="1.1" id="Layer_2" xmlns="http://www.w3.org/2000/svg" xmlns:xlink="http://www.w3.org/1999/xlink" x="0px" y="0px"
	 width="400px" height="400px" viewBox="0 0 400 400" enable-background="new 0 0 400 400" xml:space="preserve">
<g>
	<path fill="#DEAF69" d="M256.844,158.754c-2.16,1.708-5.132,2.756-7.539,3.612c-1.705,0.605-3.521,1.242-5.363,1.682
		c4.769,9.927,7.521,21.584,7.521,34.045c0,36.117-23.103,65.5-51.5,65.5c-28.397,0-51.5-29.384-51.5-65.5
		c0-11.92,2.529-23.098,6.922-32.736c-3.963-3.034-6.324-7.78-9.998-11.158c-6.896,12.586-10.925,27.678-10.925,43.895
		c0,43.836,29.383,79.5,65.5,79.5s65.5-35.664,65.5-79.5C265.461,183.786,262.314,170.364,256.844,158.754z"/>
	<path fill="#DEAF69" d="M245.961,136.678v17.662c-13.441,2.259-37.109,5.921-46.09,5.921v7l-0.007-7
		c-9.62-0.002-34.553-4.01-45.903-5.922v-25.346c-4.795-0.436-9.821-2.051-14-4.609v41.723l5.777,1.024
		c1.64,0.291,40.329,7.127,54.123,7.13h0.01c13.85,0,52.664-6.838,54.311-7.129l5.779-1.023v-34.492
		C255.602,133.997,250.834,135.681,245.961,136.678z"/>
	<path fill="#DEAF69" d="M194.512,52.073c7.512,0,14.477,2.343,20.176,6.322c0.191,0.135,6.396,3.279,6.586,3.416
		c3.672-3.296,2.061-8.944,6.726-10.602c-8.759-8.136-20.538-13.137-33.487-13.137c-11.46,0-22.005,3.917-30.349,10.458
		c-1.815,1.423-3.527,2.971-5.121,4.63c3.859,1.241,3.482,6.571,7.543,7.209c0.985,0.155,4.594,0.057,5.694-0.417
		C179.629,56.787,185.833,52.073,194.512,52.073z"/>
	<path fill="#DEAF69" d="M235.801,44.273c-7.008,0-13.658,1.64-19.646,4.558c2.902,3.891-11.756,6.293,5.119,12.98
		c0.354,0.142,4-1.364,5.168-2.071c2.1-1.271,6.109-1.467,9.358-1.467c18.334,0,33.25,16.212,33.25,36.14
		c0,16.389-10.09,30.266-23.873,34.676l0.784,14.296c21.188-4.945,37.089-25.024,37.089-48.972
		C283.051,66.766,261.855,44.273,235.801,44.273z"/>
	<path fill="#DEAF69" d="M153.132,119.049c-0.024-0.621-1.09-0.519-1.616-0.542c-17.073-0.75-29.004-13.518-29.004-29.164
		c0-16.128,14.58-29.25,32.5-29.25c0.931,0,10.663,0.208,11.574,0.278c7.75-12.903-6.203-14.278-11.574-14.278
		c-25.64,0-46.5,19.402-46.5,43.25c0,20.329,12.668,37.426,32.288,42.03c3.396,0.797,8.807-3.488,10.765-0.175
		C155.667,138.135,153.31,123.661,153.132,119.049z"/>
	<path fill="#DEAF69" d="M323.806,304.896c-10.096-21.662-42.604-45.898-75.846-60.273c-4.153,2.716-6.843,6.927-9.174,11.352
		c31.293,12.818,63.375,35.622,72.33,54.837c2.229,4.784,1.82,21.821,0.148,37.117H88.685c-1.466-13.968-2.212-31.876,0.171-37.228
		c8.968-20.139,42.843-44.732,73.965-57.019c-3.336-3.733-6.792-7.356-10.372-10.866c-32.967,14.18-66.41,39.797-76.383,62.189
		c-5.322,11.949-1.388,44.443-0.545,50.837l0.802,6.085H323.57l0.825-6.053C325.273,349.454,329.365,316.823,323.806,304.896z"/>
	<path fill="#DEAF69" d="M206.32,303.497c0,3.861-3.133,7-7,7c-3.866,0-7-3.139-7-7s3.134-7,7-7
		C203.188,296.497,206.32,299.636,206.32,303.497z"/>
	<path fill="#DEAF69" d="M206.32,326.497c0,3.861-3.133,7-7,7c-3.866,0-7-3.139-7-7s3.134-7,7-7
		C203.188,319.497,206.32,322.636,206.32,326.497z"/>
</g>
</svg>
