<?xml version="1.0" encoding="utf-8"?>
<!-- Generator: Adobe Illustrator 16.0.0, SVG Export Plug-In . SVG Version: 6.00 Build 0)  -->
<!DOCTYPE svg PUBLIC "-//W3C//DTD SVG 1.1//EN" "http://www.w3.org/Graphics/SVG/1.1/DTD/svg11.dtd">
<svg version="1.1" id="Layer_1" xmlns="http://www.w3.org/2000/svg" xmlns:xlink="http://www.w3.org/1999/xlink" x="0px" y="0px"
	 width="400px" height="400px" viewBox="0 0 400 400" enable-background="new 0 0 400 400" xml:space="preserve">
<path fill="#DEAF69" d="M199.727,39.863c92.41,0.351,161.783,75.7,160.248,162.796c-1.576,89.243-75.039,159.54-163.686,157.434
	c-88.904-2.075-157.706-75.224-156.267-162.358C41.526,106.813,115.566,39.863,199.727,39.863z M261.075,172.789
	c-0.288-0.041-0.591-0.076-0.866-0.103c0.406-2.71-0.871-4.415-2.951-5.965c-7.893-5.834-14.129-13.047-17.721-22.277
	c-1.761-4.44-2.278-4.726-7.006-3.4c-13.934,3.933-27.986,7.737-41.887,11.772c-9.891,2.839-19.774,5.754-29.49,9.089
	c-11.031,3.8-21.988,7.813-32.763,12.316c-9.036,3.804-18.078,7.813-26.462,12.785c-8.75,5.224-17.097,11.25-24.896,17.79
	c-6.96,5.816-13.041,12.759-19.304,19.375c-1.054,1.063-1.999,3.085-1.719,4.424c1.29,6.228,2.599,12.51,4.707,18.486
	c3.613,10.285,8.261,20.093,13.999,29.428c6.795,11.071,14.693,21.161,24.158,29.972c4.305,4.024,8.777,7.88,13.451,11.438
	c8.776,6.674,18.165,12.445,28.43,16.494c7.996,3.166,16.25,5.639,24.354,8.529c6.589,2.368,12.457,1.431,18.381-2.437
	c16.501-10.874,28.184-26.092,38.103-42.708c5.339-8.891,10.04-18.243,14.17-27.785c4.879-11.344,9.159-22.959,13.084-34.619
	c2.564-7.594,4.281-15.527,5.764-23.383 M238.919,109.496c2.076,0.848,3.014,0.692,4.401-0.897c4.652-5.313,10.5-8.281,17.514-9.375
	c6.152-0.924,11.928,0.22,17.739,1.771c2.163,0.573,3.577,0.181,3.849-2.188c0.395-4.311,0.877-8.619,1.02-12.917
	c0.18-4.232-0.805-7.526-5.107-10.233c-9.322-5.834-19.063-10.574-29.322-14.298c-13.178-4.751-26.82-7.383-40.828-8.228
	c-14.843-0.898-29.488,0.572-43.789,4.153c-12.886,3.217-25.162,8.177-36.731,14.817c-11.576,6.641-21.948,14.856-31.642,23.958
	c-0.682,0.625-1.131,1.446-2.161,2.826c1.745,0,2.65,0.156,3.451-0.014c4.986-1.094,9.973-2.12,14.897-3.397
	c10.97-2.826,22.087-4.741,33.383-5.286c21.27-1.043,42.267,1.17,62.659,7.46 M315.123,289.222c0.396,0.207,0.789,0.412,1.184,0.6
	c2.338-3.313,5.025-6.41,6.928-9.94c4.865-9.05,9.594-18.196,13.875-27.524c4.986-10.899,7.293-22.641,8.775-34.407
	c0.992-8.125,0.85-16.492,0.693-24.706c-0.381-20.169-5.719-39.15-14.443-57.225c-0.625-1.274-2.289-2.644-3.643-2.889
	c-3.646-0.598-7.433-0.781-11.145-0.794c-7.373-0.066-7.225,0-5.715,7.356c1.574,7.709,0.425,15.129-3.898,21.719
	c-2.135,3.19-5.258,5.754-7.746,8.736c-0.65,0.835-1.344,2.303-1.064,3.165c1.664,5.231,3.686,10.339,5.4,15.544
	c2.838,8.724,6.07,17.37,8.15,26.305c2.408,10.289,4.09,20.752,5.406,31.25c1.729,13.332,0.691,26.635-2.348,39.773
	C315.287,287.188,315.262,288.219,315.123,289.222z"/>
</svg>
