<?xml version="1.0" encoding="utf-8"?>
<!-- Generator: Adobe Illustrator 16.0.0, SVG Export Plug-In . SVG Version: 6.00 Build 0)  -->
<!DOCTYPE svg PUBLIC "-//W3C//DTD SVG 1.1//EN" "http://www.w3.org/Graphics/SVG/1.1/DTD/svg11.dtd">
<svg version="1.1" id="Layer_3" xmlns="http://www.w3.org/2000/svg" xmlns:xlink="http://www.w3.org/1999/xlink" x="0px" y="0px"
	 width="40px" height="40px" viewBox="236 236 40 40" enable-background="new 236 236 40 40" xml:space="preserve">
<g>
	<path fill="#DEAF69" d="M246.323,268.259c-1.423,0-2.581,1.157-2.581,2.58c0,1.424,1.157,2.581,2.581,2.581
		c1.423,0,2.581-1.157,2.581-2.581C248.903,269.416,247.746,268.259,246.323,268.259z M246.323,272.13
		c-0.712,0-1.291-0.579-1.291-1.291c0-0.711,0.579-1.29,1.291-1.29c0.711,0,1.29,0.579,1.29,1.29
		C247.613,271.551,247.034,272.13,246.323,272.13z"/>
	<path fill="#DEAF69" d="M270.794,271.484h3.271c1.067,0,1.936-0.868,1.936-1.936v-6.452c0-0.244-0.138-0.467-0.356-0.577
		l-5.029-2.514l-5.199-6.759c-0.849-1.104-2.187-1.763-3.579-1.763h-2.61v-2.58h7.097c0.357,0,0.646-0.289,0.646-0.646v-10.322
		c0-0.356-0.288-0.646-0.646-0.646h-20.645c-0.356,0-0.645,0.289-0.645,0.646v10.322c0,0.356,0.289,0.646,0.645,0.646h7.097v2.77
		c-0.911,0.268-1.732,0.811-2.319,1.573l-5.144,6.688l-6.251,1.34c-1.773,0.38-3.06,1.971-3.06,3.784v4.489
		c0,1.067,0.868,1.936,1.936,1.936h3.27c0.32,2.542,2.49,4.516,5.117,4.516c2.627,0,4.797-1.974,5.117-4.516h9.122
		c0.319,2.542,2.489,4.516,5.116,4.516S270.475,274.026,270.794,271.484z M274.71,267.613h-1.291v-4.763l1.291,0.646V267.613z
		 M246.323,238.581h19.355v9.032h-19.355V238.581z M257.936,248.904v2.58h-3.871v-2.58H257.936z M237.293,265.032h1.288v1.291h-1.29
		v-1.264C237.291,265.051,237.293,265.042,237.293,265.032z M237.291,269.549v-1.936h1.935c0.357,0,0.646-0.288,0.646-0.646v-2.58
		c0-0.357-0.289-0.646-0.646-0.646h-1.564c0.359-0.6,0.953-1.052,1.669-1.206l6.483-1.389c0.149-0.032,0.283-0.116,0.376-0.237
		l5.289-6.876c0.606-0.789,1.562-1.26,2.557-1.26h7.801c0.995,0,1.95,0.471,2.557,1.26l5.289,6.876
		c0.061,0.077,0.137,0.141,0.224,0.184l2.224,1.111v6.054c0,0.356,0.288,0.645,0.646,0.645h1.936v0.646
		c0,0.356-0.289,0.646-0.646,0.646h-3.271c-0.319-2.542-2.489-4.517-5.116-4.517s-4.798,1.975-5.117,4.517h-9.121
		c-0.319-2.542-2.49-4.517-5.117-4.517c-2.627,0-4.797,1.975-5.117,4.517h-3.27C237.58,270.194,237.291,269.905,237.291,269.549z
		 M246.323,274.71c-2.135,0-3.871-1.736-3.871-3.871s1.736-3.871,3.871-3.871c2.135,0,3.871,1.736,3.871,3.871
		S248.458,274.71,246.323,274.71z M265.678,274.71c-2.135,0-3.871-1.736-3.871-3.871s1.736-3.871,3.871-3.871
		s3.871,1.736,3.871,3.871S267.813,274.71,265.678,274.71z"/>
	<path fill="#DEAF69" d="M265.678,268.259c-1.424,0-2.581,1.157-2.581,2.58c0,1.424,1.157,2.581,2.581,2.581
		c1.423,0,2.58-1.157,2.58-2.581C268.258,269.416,267.101,268.259,265.678,268.259z M265.678,272.13
		c-0.712,0-1.291-0.579-1.291-1.291c0-0.711,0.579-1.29,1.291-1.29c0.711,0,1.29,0.579,1.29,1.29
		C266.968,271.551,266.389,272.13,265.678,272.13z"/>
	<path fill="#DEAF69" d="M248.903,261.807h18.064c0.24,0,0.461-0.134,0.572-0.347c0.111-0.214,0.094-0.471-0.043-0.668l-3.938-5.626
		c-0.483-0.689-1.273-1.101-2.114-1.101h-7.017c-0.841,0-1.631,0.411-2.114,1.101l-3.938,5.626
		c-0.138,0.197-0.155,0.454-0.043,0.668C248.442,261.673,248.663,261.807,248.903,261.807z M262.501,255.906l3.228,4.61h-7.147
		v-5.161h2.863C261.864,255.355,262.26,255.562,262.501,255.906z M253.37,255.906c0.242-0.345,0.636-0.551,1.057-0.551h2.863v5.161
		h-7.147L253.37,255.906z"/>
	<path fill="#DEAF69" d="M256,263.097h2.581v1.291H256V263.097z"/>
	<path fill="#DEAF69" d="M265.032,263.097h2.581v1.291h-2.581V263.097z"/>
	<path fill="#DEAF69" d="M249.714,239.871h-1.456c-0.357,0-0.646,0.289-0.646,0.646v5.807h1.291v-1.936h0.645
		c0.356,0,0.645,0.29,0.645,0.646v1.29h1.291v-1.29c0-0.498-0.194-0.947-0.503-1.291c0.309-0.343,0.503-0.793,0.503-1.29v-1.29
		c0-0.385-0.116-0.694-0.343-0.92C250.758,239.862,250.226,239.868,249.714,239.871z M248.903,243.098v-1.936l0.82-0.001
		c0.146-0.001,0.349-0.003,0.47,0.012v1.279c0,0.355-0.289,0.646-0.645,0.646H248.903z"/>
	<path fill="#DEAF69" d="M252.129,240.517v5.161c0,0.356,0.289,0.646,0.646,0.646h2.581v-1.29h-1.936v-1.291h1.29v-1.29h-1.29v-1.29
		h1.936v-1.291h-2.581C252.417,239.871,252.129,240.16,252.129,240.517z"/>
	<path fill="#DEAF69" d="M258.581,242.945l-1.358-2.717c-0.134-0.268-0.438-0.408-0.725-0.34c-0.292,0.068-0.498,0.329-0.498,0.628
		v5.807h1.29v-3.073l1.358,2.717c0.111,0.223,0.337,0.356,0.577,0.356c0.049,0,0.099-0.006,0.148-0.018
		c0.291-0.068,0.497-0.328,0.497-0.628v-5.807h-1.29V242.945z"/>
	<path fill="#DEAF69" d="M260.517,241.162h1.29v5.161h1.29v-5.161h1.29v-1.291h-3.87V241.162z"/>
</g>
</svg>
