<?xml version="1.0" encoding="utf-8"?>
<!-- Generator: Adobe Illustrator 16.0.0, SVG Export Plug-In . SVG Version: 6.00 Build 0)  -->
<!DOCTYPE svg PUBLIC "-//W3C//DTD SVG 1.1//EN" "http://www.w3.org/Graphics/SVG/1.1/DTD/svg11.dtd">
<svg version="1.1" id="Layer_1" xmlns="http://www.w3.org/2000/svg" xmlns:xlink="http://www.w3.org/1999/xlink" x="0px" y="0px"
	 width="20px" height="20px" viewBox="0 0 20 20" enable-background="new 0 0 20 20" xml:space="preserve">
<path d="M2.018,6.673L9,10.52v7.697l-6.983-3.848L2.018,6.673L2.018,6.673z M16.982,6.673v7.695L10,18.216V10.52L16.982,6.673
	L16.982,6.673z M9.5,2l6.982,3.848L9.5,9.694L2.517,5.848L9.5,2z"/>
</svg>
