<svg xmlns="http://www.w3.org/2000/svg" width="14" height="14" viewBox="0 0 14 14">
    <path fill="#FFF" d="M6.417 11C8.948 11 11 8.948 11 6.417c0-2.532-2.052-4.584-4.583-4.584-2.532 0-4.584 2.052-4.584 4.584C1.833 8.948 3.885 11 6.417 11zm0-11c3.543 0 6.416 2.873 6.416 6.417 0 1.44-.475 2.77-1.277 3.842l1.926 1.926c.357.358.357.939 0 1.297-.358.357-.939.357-1.297 0l-1.926-1.926c-1.071.802-2.401 1.277-3.842 1.277C2.873 12.833 0 9.96 0 6.417 0 2.873 2.873 0 6.417 0z"/>
</svg>
