<svg xmlns="http://www.w3.org/2000/svg" width="132" height="132" viewBox="0 0 132 132">
    <defs>
        <linearGradient id="f5kcvzlhqa" x1="2.995%" x2="96.071%" y1="19.969%" y2="80.031%">
            <stop offset="0%" stop-color="#F3CD84"/>
            <stop offset="100%" stop-color="#D9A757"/>
        </linearGradient>
    </defs>
    <g fill="none" fill-rule="evenodd">
        <g>
            <g>
                <g>
                    <path stroke="#DEAF69" stroke-dasharray="4 5" d="M65 130c35.899 0 65-29.101 65-65S100.899 0 65 0 0 29.101 0 65s29.101 65 65 65z" opacity=".364" transform="translate(-1057 -5470) translate(0 5240) translate(1058 231)"/>
                    <path fill="url(#f5kcvzlhqa)" fill-rule="nonzero" stroke="#000" stroke-opacity=".137" stroke-width="1.622" d="M85 57.967v-2.65c0-1.755-.456-3.08-1.368-3.975C82.72 50.447 81.358 50 79.546 50H50.454c-1.8 0-3.16.445-4.077 1.334-.918.889-1.377 2.216-1.377 3.983v2.65h40zM56.855 75.17h-4.148c-.489 0-.888-.15-1.198-.45-.31-.3-.465-.686-.465-1.157v-3.092c0-.47.155-.856.465-1.157.31-.3.709-.45 1.198-.45h4.148c.5 0 .903.15 1.207.45.304.3.456.686.456 1.157v3.092c0 .47-.152.856-.456 1.157-.304.3-.706.45-1.207.45zM45 75.683c0 1.767.459 3.094 1.377 3.983.918.89 2.277 1.334 4.077 1.334h29.092c1.812 0 3.174-.447 4.086-1.342.912-.895 1.368-2.22 1.368-3.975V61.818H45v13.865z" transform="translate(-1057 -5470) translate(0 5240) translate(1058 231)"/>
                </g>
            </g>
        </g>
    </g>
</svg>
